%YAML 1.1
%TAG !u! tag:unity3d.com,2011:
--- !u!1 &100000
GameObject:
  m_ObjectHideFlags: 0
  m_CorrespondingSourceObject: {fileID: 0}
  m_PrefabInstance: {fileID: 0}
  m_PrefabAsset: {fileID: 0}
  serializedVersion: 6
  m_Component:
  - component: {fileID: 400000}
  - component: {fileID: 11400000}
  m_Layer: 0
  m_Name: SoundEffectsController
  m_TagString: Untagged
  m_Icon: {fileID: 0}
  m_NavMeshLayer: 0
  m_StaticEditorFlags: 0
  m_IsActive: 1
--- !u!4 &400000
Transform:
  m_ObjectHideFlags: 0
  m_CorrespondingSourceObject: {fileID: 0}
  m_PrefabInstance: {fileID: 0}
  m_PrefabAsset: {fileID: 0}
  m_GameObject: {fileID: 100000}
  m_LocalRotation: {x: 0, y: 0, z: 0, w: 1}
  m_LocalPosition: {x: 53.880665, y: 74.36873, z: 0}
  m_LocalScale: {x: 1, y: 1, z: 1}
  m_Children: []
  m_Father: {fileID: 0}
  m_RootOrder: 0
  m_LocalEulerAnglesHint: {x: 0, y: 0, z: 0}
--- !u!114 &11400000
MonoBehaviour:
  m_ObjectHideFlags: 0
  m_CorrespondingSourceObject: {fileID: 0}
  m_PrefabInstance: {fileID: 0}
  m_PrefabAsset: {fileID: 0}
  m_GameObject: {fileID: 100000}
  m_Enabled: 1
  m_EditorHideFlags: 0
  m_Script: {fileID: 11500000, guid: f061ea2de78cb32469819db45f27511f, type: 3}
  m_Name: 
  m_EditorClassIdentifier: 
  mainSound: {fileID: 8300000, guid: aa000d02e3e1a9b479cc07f13f788d5b, type: 3}
  Grynts:
  - {fileID: 8300000, guid: 75ef5e29c41c22b4bbb5ee4106997452, type: 3}
  - {fileID: 8300000, guid: 12df2a3af1448c848933aaaf61e0e3c7, type: 3}
  - {fileID: 8300000, guid: 703d57e44eb7b2f43aa826f9eb086c72, type: 3}
  - {fileID: 8300000, guid: f04801c181257a740a7f73a7adc6a4a7, type: 3}
  - {fileID: 8300000, guid: bf83a3bc34e17e0478ec2ca63a022155, type: 3}
  - {fileID: 8300000, guid: b8f463fa1d5d4994e8b2f86e31c1e4d8, type: 3}
  - {fileID: 8300000, guid: 5817ffeb3f0a08e4dba29b61cd1ffd7b, type: 3}
  - {fileID: 8300000, guid: 6990f60494475c64491005c9056e19fd, type: 3}
  Hyl:
  - {fileID: 8300000, guid: 9f0fc168707ce674cb6db3f308779da5, type: 3}
  - {fileID: 8300000, guid: dff33ee65dfd3fb41a4043a14ba6e8cf, type: 3}
  - {fileID: 8300000, guid: a7529e8cf392e5f46a08e74c5883befa, type: 3}
  - {fileID: 8300000, guid: 822819751b2f6394cb94671ca8b4540d, type: 3}
  - {fileID: 8300000, guid: ace4e07abeaf49b4e8f064091527a875, type: 3}
  - {fileID: 8300000, guid: 6444dfe7ede7b694690e3bce77d08dda, type: 3}
  Prutter:
  - {fileID: 8300000, guid: e3bc45b0c5852264385ad24210d443a1, type: 3}
  - {fileID: 8300000, guid: 783c6862ef2ee004c9dbddb7a71cbc8b, type: 3}
  - {fileID: 8300000, guid: ed15f5facf091e5438b0cba40e124c23, type: 3}
  - {fileID: 8300000, guid: 63df653f70740b04e81920270e204f24, type: 3}
  - {fileID: 8300000, guid: 85a6a258bf37e734b8516d85ac9a295e, type: 3}
  - {fileID: 8300000, guid: 87bb64cb96d368f4fb6408090608e603, type: 3}
  - {fileID: 8300000, guid: 8c31b7e19905d1242b69a4ef9090f01f, type: 3}
  - {fileID: 8300000, guid: 7cb01d65be2117c45a2e03d683d8c8a8, type: 3}
  - {fileID: 8300000, guid: f11d9056e63365d4abc68d1a1b270fb7, type: 3}
  - {fileID: 8300000, guid: a52c137846726254b9cf323e4348857d, type: 3}
  - {fileID: 8300000, guid: 7a9acd0183b35404e98f5b85b7e3f242, type: 3}
  - {fileID: 8300000, guid: be4dce99e1b638a478901a1020034c1b, type: 3}
  - {fileID: 8300000, guid: 60cfacbecf3bab34182a837bccd00c00, type: 3}
  - {fileID: 8300000, guid: 44cedba77fbe09940a3e018657ce5612, type: 3}
  - {fileID: 8300000, guid: 8b2637f1ab6089644ad230e10e0b54db, type: 3}
  - {fileID: 8300000, guid: f81af4848b3c7514ab118f90cd32deb2, type: 3}
  - {fileID: 8300000, guid: c1dd6f364c69be14d94af6ee34809edc, type: 3}
  - {fileID: 8300000, guid: 51cf760caa9fbfd41ad8eff04d7553e0, type: 3}
  - {fileID: 8300000, guid: c894c25a72c8ddd41b4f23e2daf3ee46, type: 3}
  - {fileID: 8300000, guid: 65dbc34fac851ac459f5378e895db063, type: 3}
  - {fileID: 8300000, guid: 864eafcc4a4e30e4aaea393b160c35e5, type: 3}
  - {fileID: 8300000, guid: c9197be3377d75f4c86b84e3eb3996ea, type: 3}
  - {fileID: 8300000, guid: 961650e82ea1bfc4297ab7329a5c7e8f, type: 3}
  - {fileID: 8300000, guid: e50d38ab291b4444e8406fec53c714c2, type: 3}
  - {fileID: 8300000, guid: 239c6157c2ca7014ea67c326ca1a7c30, type: 3}
  - {fileID: 8300000, guid: 07d2145e82a18d2478244f92e82e9191, type: 3}
